…
## Import Dataset

``` r
mydata <- read_excel("Golf .xls")
attach(mydata)
```

## Import Dataset"

``` r
mydata
```

    ## # A tibble: 40 x 2
    ##    Current   New
    ##      <dbl> <dbl>
    ##  1     264   277
    ##  2     261   269
    ##  3     267   263
    ##  4     272   266
    ##  5     258   262
    ##  6     283   251
    ##  7     258   262
    ##  8     266   289
    ##  9     259   286
    ## 10     270   264
    ## # ... with 30 more rows
…
